{
    "idle": {
      "frames": [9],
      "frame_secs": 0.250
    },
    "walk": {
      "frames": [9,10],
      "frame_secs": 0.250
    },
    "rise": {
      "frames": [0,1,2,3,4,5,6,7,8],
      "frame_secs": 0.250
    },
    "die": {
      "frames": [11,12,13,14],
      "frame_secs": 0.250
    }
  }
  