{
    "idle": {
      "frames": [7],
      "frame_secs": 0.250
    },
    "walk": {
      "frames": [8,9],
      "frame_secs": 0.100
    },
    "rise": {
      "frames": [0,1,2,3,4,5,6],
      "frame_secs": 0.250
    },
    "die": {
      "frames": [10],
      "frame_secs": 0.250
    }
  }
  