{
    "idle": {
      "frames": [8],
      "frame_secs": 0.250
    },
    "walk": {
      "frames": [8,9,10,11,12,13],
      "frame_secs": 0.250
    },
    "rise": {
      "frames": [0,1,2,3,4,5,6,7],
      "frame_secs": 0.250
    },
    "die": {
      "frames": [10,11,12,13,14,15,16],
      "frame_secs": 0.250
    }
  }
  