{
  "idle": {
    "frames": [
      52
    ],
    "frame_secs": 0.250
  },
  "walk": {
    "frames": [
      53,
      54,
      55,
      56,
      57,
      58
    ],
    "frame_secs": 0.100
  },
  "jump": {
    "frames": [
      60
    ],
    "frame_secs": 0.250
  },
  "climb": {
    "frames": [
      70,
      71,
      72,
      73
    ],
    "frame_secs": 0.250
  },
  "crouch": {
    "frames": [
      59
    ],
    "frame_secs": 0.250
  },
  "fall": {
    "frames": [
      76
    ],
    "frame_secs": 0.250
  },
  "rise": {
    "frames": [
      59
    ],
    "frame_secs": 0.250
  },
  "die": {
    "frames": [
      59
    ],
    "frame_secs": 0.250
  },
  "shoot": {
    "frames": [
      62,
      63
    ],
    "frame_secs": 0.150
  },
  "shoot_crouched": {
    "frames": [
      66,
      67
    ],
    "frame_secs": 0.150
  }
}