{
  "idle": {
    "frames": [
      0
    ],
    "frame_secs": 0.250
  },
  "walk": {
    "frames": [
      1,
      2,
      3,
      4,
      5,
      6
    ],
    "frame_secs": 0.150
  },
  "jump": {
    "frames": [
      8
    ],
    "frame_secs": 0.250
  },
  "climb": {
    "frames": [
      18,
      19,
      20,
      21
    ],
    "frame_secs": 0.250
  },
  "crouch": {
    "frames": [
      7
    ],
    "frame_secs": 0.250
  },
  "fall": {
    "frames": [
      24
    ],
    "frame_secs": 0.250
  },
  "rise": {
    "frames": [
      7
    ],
    "frame_secs": 0.250
  },
  "die": {
    "frames": [
      7
    ],
    "frame_secs": 0.250
  },
  "shoot": {
    "frames": [
      10,
      11
    ],
    "frame_secs": 0.150
  },
  "shoot_crouched": {
    "frames": [
      12,
      13
    ],
    "frame_secs": 0.150
  }
}