{
  "spear": {
    "frames": [
      0,
      1
    ],
    "frame_secs": 0.250
  },
  "knife": {
    "frames": [
      0,
      1
    ],
    "frame_secs": 0.250
  },
  "axe": {
    "frames": [
      0,
      1,
      2,
      3,
      4,
      5,
      6,
      7
    ],
    "frame_secs": 0.450
  },
  "fire": {
    "frames": [
      0,
      1,
      2,
      3,
      4,
      5,
      6,
      7,
      8,
      9,
      10,
      11
    ],
    "frame_secs": 0.550
  },
  "sword": {
    "frames": [
      0,
      1,
      2,
      3
    ],
    "frame_secs": 0.100
  }
}